.Xil/Vivado-11704-Iron-Man/hw_ila_data_1/zip_work/waveform.vcd
$date
        2026-May-25 16:48:34
$end
$version
        Vivado v2023.2 (64-bit)
$end
$timescale
        1ps
$end
$scope module dut $end
$var reg 8 " control/instruction [7:0] $end
$var reg 8 * control/exceptNum [7:0] $end
$var reg 24 2 control/mar [23:0] $end
$var reg 8 J control/mdr [7:0] $end
$var reg 16 R control/cycleCount [15:0] $end
$var reg 8 b control/r1Out [7:0] $end
$var reg 4 j control/state [3:0] $end
$var reg 24 n addressOutDbg [23:0] $end
$var reg 24 (" pc [23:0] $end
$var reg 8 @" dataOutDbg [7:0] $end
$var reg 32 H" clkCnt [31:0] $end
$var reg 8 h" dataInDbg [7:0] $end
$var reg 8 p" dataDbg [7:0] $end
$var reg 1 x" clkEn $end
$var reg 1 y" en $end
$var reg 1 z" enBtnDbg $end
$var reg 1 {" _TRIGGER $end
$var reg 1 |" _WINDOW $end
$var reg 1 }" _GAP $end
$upscope $end
$enddefinitions $end
#0
$dumpvars
b1001000 "
b0 *
b1001 2
b0 J
b0 R
b1010101 b
b100 j
b1001 n
b110 ("
b0 @"
b11010 H"
b0 h"
b0 p"
0x"
1y"
1z"
0{"
1|"
0}"
$end
#1
b11011 H"
#2
b11100 H"
#3
b11101 H"
#4
b11110 H"
#5
b11111 H"
#6
b100000 H"
#7
b100001 H"
#8
b100010 H"
#9
b100011 H"
#10
b100100 H"
#11
b100101 H"
#12
b100110 H"
#13
b100111 H"
#14
b101000 H"
#15
b101001 H"
#16
b101010 H"
#17
b101011 H"
#18
b101100 H"
#19
b101101 H"
#20
b101110 H"
#21
b101111 H"
#22
b110000 H"
#23
b110001 H"
#24
b110010 H"
#25
b0 H"
1x"
#26
b1 H"
0x"
#27
b10 H"
#28
b11 H"
#29
b100 H"
#30
b101 H"
#31
b110 H"
#32
b111 H"
#33
b1000 H"
#34
b1001 H"
#35
b1010 H"
#36
b1011 H"
#37
b1100 H"
#38
b1101 H"
#39
b1110 H"
#40
b1111 H"
#41
b10000 H"
#42
b10001 H"
#43
b10010 H"
#44
b10011 H"
#45
b10100 H"
#46
b10101 H"
#47
b10110 H"
#48
b10111 H"
#49
b11000 H"
#50
b11001 H"
#51
b11010 H"
#52
b11011 H"
#53
b11100 H"
#54
b11101 H"
#55
b11110 H"
#56
b11111 H"
#57
b100000 H"
#58
b100001 H"
#59
b100010 H"
#60
b100011 H"
#61
b100100 H"
#62
b100101 H"
#63
b100110 H"
#64
b100111 H"
#65
b101000 H"
#66
b101001 H"
#67
b101010 H"
#68
b101011 H"
#69
b101100 H"
#70
b101101 H"
#71
b101110 H"
#72
b101111 H"
#73
b110000 H"
#74
b110001 H"
#75
b110010 H"
#76
b0 H"
1x"
#77
b1 H"
0x"
#78
b10 H"
#79
b11 H"
#80
b100 H"
#81
b101 H"
#82
b110 H"
#83
b111 H"
#84
b1000 H"
#85
b1001 H"
#86
b1010 H"
#87
b1011 H"
#88
b1100 H"
#89
b1101 H"
#90
b1110 H"
#91
b1111 H"
#92
b10000 H"
#93
b10001 H"
#94
b10010 H"
#95
b10011 H"
#96
b10100 H"
#97
b10101 H"
#98
b10110 H"
#99
b10111 H"
#100
b11000 H"
#101
b11001 H"
#102
b11010 H"
#103
b11011 H"
#104
b11100 H"
#105
b11101 H"
#106
b11110 H"
#107
b11111 H"
#108
b100000 H"
#109
b100001 H"
#110
b100010 H"
#111
b100011 H"
#112
b100100 H"
#113
b100101 H"
#114
b100110 H"
#115
b100111 H"
#116
b101000 H"
#117
b101001 H"
#118
b101010 H"
#119
b101011 H"
#120
b101100 H"
#121
b101101 H"
#122
b101110 H"
#123
b101111 H"
#124
b110000 H"
#125
b110001 H"
#126
b110010 H"
#127
b0 H"
1x"
#128
b1 H"
0x"
#129
b10 H"
#130
b11 H"
#131
b100 H"
#132
b101 H"
#133
b110 H"
#134
b111 H"
#135
b1000 H"
#136
b1001 H"
#137
b1010 H"
#138
b1011 H"
#139
b1100 H"
#140
b1101 H"
#141
b1110 H"
#142
b1111 H"
#143
b10000 H"
#144
b10001 H"
#145
b10010 H"
#146
b10011 H"
#147
b10100 H"
#148
b10101 H"
#149
b10110 H"
#150
b10111 H"
#151
b11000 H"
#152
b11001 H"
#153
b11010 H"
#154
b11011 H"
#155
b11100 H"
#156
b11101 H"
#157
b11110 H"
#158
b11111 H"
#159
b100000 H"
#160
b100001 H"
#161
b100010 H"
#162
b100011 H"
#163
b100100 H"
#164
b100101 H"
#165
b100110 H"
#166
b100111 H"
#167
b101000 H"
#168
b101001 H"
#169
b101010 H"
#170
b101011 H"
#171
b101100 H"
#172
b101101 H"
#173
b101110 H"
#174
b101111 H"
#175
b110000 H"
#176
b110001 H"
#177
b110010 H"
#178
b0 H"
1x"
#179
b1 H"
0x"
#180
b10 H"
#181
b11 H"
#182
b100 H"
#183
b101 H"
#184
b110 H"
#185
b111 H"
#186
b1000 H"
#187
b1001 H"
#188
b1010 H"
#189
b1011 H"
#190
b1100 H"
#191
b1101 H"
#192
b1110 H"
#193
b1111 H"
#194
b10000 H"
#195
b10001 H"
#196
b10010 H"
#197
b10011 H"
#198
b10100 H"
#199
b10101 H"
#200
b10110 H"
#201
b10111 H"
#202
b11000 H"
#203
b11001 H"
#204
b11010 H"
#205
b11011 H"
#206
b11100 H"
#207
b11101 H"
#208
b11110 H"
#209
b11111 H"
#210
b100000 H"
#211
b100001 H"
#212
b100010 H"
#213
b100011 H"
#214
b100100 H"
#215
b100101 H"
#216
b100110 H"
#217
b100111 H"
#218
b101000 H"
#219
b101001 H"
#220
b101010 H"
#221
b101011 H"
#222
b101100 H"
#223
b101101 H"
#224
b101110 H"
#225
b101111 H"
#226
b110000 H"
#227
b110001 H"
#228
b110010 H"
#229
b0 H"
1x"
#230
b1 H"
0x"
#231
b10 H"
#232
b11 H"
#233
b100 H"
#234
b101 H"
#235
b110 H"
#236
b111 H"
#237
b1000 H"
#238
b1001 H"
#239
b1010 H"
#240
b1011 H"
#241
b1100 H"
#242
b1101 H"
#243
b1110 H"
#244
b1111 H"
#245
b10000 H"
#246
b10001 H"
#247
b10010 H"
#248
b10011 H"
#249
b10100 H"
#250
b10101 H"
#251
b10110 H"
#252
b10111 H"
#253
b11000 H"
#254
b11001 H"
#255
b11010 H"
#256
b11011 H"
#257
b11100 H"
#258
b11101 H"
#259
b11110 H"
#260
b11111 H"
#261
b100000 H"
#262
b100001 H"
#263
b100010 H"
#264
b100011 H"
#265
b100100 H"
#266
b100101 H"
#267
b100110 H"
#268
b100111 H"
#269
b101000 H"
#270
b101001 H"
#271
b101010 H"
#272
b101011 H"
#273
b101100 H"
#274
b101101 H"
#275
b101110 H"
#276
b101111 H"
#277
b110000 H"
#278
b110001 H"
#279
b110010 H"
#280
b0 H"
1x"
#281
b1 H"
0x"
#282
b10 H"
#283
b11 H"
#284
b100 H"
#285
b101 H"
#286
b110 H"
#287
b111 H"
#288
b1000 H"
#289
b1001 H"
#290
b1010 H"
#291
b1011 H"
#292
b1100 H"
#293
b1101 H"
#294
b1110 H"
#295
b1111 H"
#296
b10000 H"
#297
b10001 H"
#298
b10010 H"
#299
b10011 H"
#300
b10100 H"
#301
b10101 H"
#302
b10110 H"
#303
b10111 H"
#304
b11000 H"
#305
b11001 H"
#306
b11010 H"
#307
b11011 H"
#308
b11100 H"
#309
b11101 H"
#310
b11110 H"
#311
b11111 H"
#312
b100000 H"
#313
b100001 H"
#314
b100010 H"
#315
b100011 H"
#316
b100100 H"
#317
b100101 H"
#318
b100110 H"
#319
b100111 H"
#320
b101000 H"
#321
b101001 H"
#322
b101010 H"
#323
b101011 H"
#324
b101100 H"
#325
b101101 H"
#326
b101110 H"
#327
b101111 H"
#328
b110000 H"
#329
b110001 H"
#330
b110010 H"
#331
b0 H"
1x"
#332
b1 H"
0x"
#333
b10 H"
#334
b11 H"
#335
b100 H"
#336
b101 H"
#337
b110 H"
#338
b111 H"
#339
b1000 H"
#340
b1001 H"
#341
b1010 H"
#342
b1011 H"
#343
b1100 H"
#344
b1101 H"
#345
b1110 H"
#346
b1111 H"
#347
b10000 H"
#348
b10001 H"
#349
b10010 H"
#350
b10011 H"
#351
b10100 H"
#352
b10101 H"
#353
b10110 H"
#354
b10111 H"
#355
b11000 H"
#356
b11001 H"
#357
b11010 H"
#358
b11011 H"
#359
b11100 H"
#360
b11101 H"
#361
b11110 H"
#362
b11111 H"
#363
b100000 H"
#364
b100001 H"
#365
b100010 H"
#366
b100011 H"
#367
b100100 H"
#368
b100101 H"
#369
b100110 H"
#370
b100111 H"
#371
b101000 H"
#372
b101001 H"
#373
b101010 H"
#374
b101011 H"
#375
b101100 H"
#376
b101101 H"
#377
b101110 H"
#378
b101111 H"
#379
b110000 H"
#380
b110001 H"
#381
b110010 H"
#382
b0 H"
1x"
#383
b11 j
b1 H"
0x"
#384
b10 H"
#385
b11 H"
#386
b100 H"
#387
b101 H"
#388
b110 H"
#389
b111 H"
#390
b1000 H"
#391
b1001 H"
#392
b1010 H"
#393
b1011 H"
#394
b1100 H"
#395
b1101 H"
#396
b1110 H"
#397
b1111 H"
#398
b10000 H"
#399
b10001 H"
#400
b10010 H"
#401
b10011 H"
#402
b10100 H"
#403
b10101 H"
#404
b10110 H"
#405
b10111 H"
#406
b11000 H"
#407
b11001 H"
#408
b11010 H"
#409
b11011 H"
#410
b11100 H"
#411
b11101 H"
#412
b11110 H"
#413
b11111 H"
#414
b100000 H"
#415
b100001 H"
#416
b100010 H"
#417
b100011 H"
#418
b100100 H"
#419
b100101 H"
#420
b100110 H"
#421
b100111 H"
#422
b101000 H"
#423
b101001 H"
#424
b101010 H"
#425
b101011 H"
#426
b101100 H"
#427
b101101 H"
#428
b101110 H"
#429
b101111 H"
#430
b110000 H"
#431
b110001 H"
#432
b110010 H"
#433
b0 H"
1x"
#434
b1 R
b1101 j
b1 H"
0x"
#435
b10 H"
#436
b11 H"
#437
b100 H"
#438
b101 H"
#439
b110 H"
#440
b111 H"
#441
b1000 H"
#442
b1001 H"
#443
b1010 H"
#444
b1011 H"
#445
b1100 H"
#446
b1101 H"
#447
b1110 H"
#448
b1111 H"
#449
b10000 H"
#450
b10001 H"
#451
b10010 H"
#452
b10011 H"
#453
b10100 H"
#454
b10101 H"
#455
b10110 H"
#456
b10111 H"
#457
b11000 H"
#458
b11001 H"
#459
b11010 H"
#460
b11011 H"
#461
b11100 H"
#462
b11101 H"
#463
b11110 H"
#464
b11111 H"
#465
b100000 H"
#466
b100001 H"
#467
b100010 H"
#468
b100011 H"
#469
b100100 H"
#470
b100101 H"
#471
b100110 H"
#472
b100111 H"
#473
b101000 H"
#474
b101001 H"
#475
b101010 H"
#476
b101011 H"
#477
b101100 H"
#478
b101101 H"
#479
b101110 H"
#480
b101111 H"
#481
b110000 H"
#482
b110001 H"
#483
b110010 H"
#484
b0 H"
1x"
#485
b0 R
b1 H"
0x"
#486
b10 H"
#487
b11 H"
#488
b100 H"
#489
b101 H"
#490
b110 H"
#491
b111 H"
#492
b1000 H"
#493
b1001 H"
#494
b1010 H"
#495
b1011 H"
#496
b1100 H"
#497
b1101 H"
#498
b1110 H"
#499
b1111 H"
#500
b10000 H"
#501
b10001 H"
#502
b10010 H"
#503
b10011 H"
#504
b10100 H"
#505
b10101 H"
#506
b10110 H"
#507
b10111 H"
#508
b11000 H"
#509
b11001 H"
#510
b11010 H"
#511
b11011 H"
#512
b11100 H"
#513
b11101 H"
#514
b11110 H"
#515
b11111 H"
#516
b100000 H"
#517
b100001 H"
#518
b100010 H"
#519
b100011 H"
#520
b100100 H"
#521
b100101 H"
#522
b100110 H"
#523
b100111 H"
#524
b101000 H"
#525
b101001 H"
#526
b101010 H"
#527
b101011 H"
#528
b101100 H"
#529
b101101 H"
#530
b101110 H"
#531
b101111 H"
#532
b110000 H"
#533
b110001 H"
#534
b110010 H"
#535
b0 H"
1x"
#536
b110 2
b1010 R
b0 j
b110 n
b1 H"
0x"
#537
b10 H"
#538
b11 H"
b1001000 h"
b1001000 p"
#539
b100 H"
#540
b101 H"
#541
b110 H"
#542
b111 H"
#543
b1000 H"
#544
b1001 H"
#545
b1010 H"
#546
b1011 H"
#547
b1100 H"
#548
b1101 H"
#549
b1110 H"
#550
b1111 H"
#551
b10000 H"
#552
b10001 H"
#553
b10010 H"
#554
b10011 H"
#555
b10100 H"
#556
b10101 H"
#557
b10110 H"
#558
b10111 H"
#559
b11000 H"
#560
b11001 H"
#561
b11010 H"
#562
b11011 H"
#563
b11100 H"
#564
b11101 H"
#565
b11110 H"
#566
b11111 H"
#567
b100000 H"
#568
b100001 H"
#569
b100010 H"
#570
b100011 H"
#571
b100100 H"
#572
b100101 H"
#573
b100110 H"
#574
b100111 H"
#575
b101000 H"
#576
b101001 H"
#577
b101010 H"
#578
b101011 H"
#579
b101100 H"
#580
b101101 H"
#581
b101110 H"
#582
b101111 H"
#583
b110000 H"
#584
b110001 H"
#585
b110010 H"
#586
b0 H"
1x"
#587
b1001 R
b1 H"
0x"
#588
b10 H"
#589
b11 H"
#590
b100 H"
#591
b101 H"
#592
b110 H"
#593
b111 H"
#594
b1000 H"
#595
b1001 H"
#596
b1010 H"
#597
b1011 H"
#598
b1100 H"
#599
b1101 H"
#600
b1110 H"
#601
b1111 H"
#602
b10000 H"
#603
b10001 H"
#604
b10010 H"
#605
b10011 H"
#606
b10100 H"
#607
b10101 H"
#608
b10110 H"
#609
b10111 H"
#610
b11000 H"
#611
b11001 H"
#612
b11010 H"
#613
b11011 H"
#614
b11100 H"
#615
b11101 H"
#616
b11110 H"
#617
b11111 H"
#618
b100000 H"
#619
b100001 H"
#620
b100010 H"
#621
b100011 H"
#622
b100100 H"
#623
b100101 H"
#624
b100110 H"
#625
b100111 H"
#626
b101000 H"
#627
b101001 H"
#628
b101010 H"
#629
b101011 H"
#630
b101100 H"
#631
b101101 H"
#632
b101110 H"
#633
b101111 H"
#634
b110000 H"
#635
b110001 H"
#636
b110010 H"
#637
b0 H"
1x"
#638
b1000 R
b1 H"
0x"
#639
b10 H"
#640
b11 H"
#641
b100 H"
#642
b101 H"
#643
b110 H"
#644
b111 H"
#645
b1000 H"
#646
b1001 H"
#647
b1010 H"
#648
b1011 H"
#649
b1100 H"
#650
b1101 H"
#651
b1110 H"
#652
b1111 H"
#653
b10000 H"
#654
b10001 H"
#655
b10010 H"
#656
b10011 H"
#657
b10100 H"
#658
b10101 H"
#659
b10110 H"
#660
b10111 H"
#661
b11000 H"
#662
b11001 H"
#663
b11010 H"
#664
b11011 H"
#665
b11100 H"
#666
b11101 H"
#667
b11110 H"
#668
b11111 H"
#669
b100000 H"
#670
b100001 H"
#671
b100010 H"
#672
b100011 H"
#673
b100100 H"
#674
b100101 H"
#675
b100110 H"
#676
b100111 H"
#677
b101000 H"
#678
b101001 H"
#679
b101010 H"
#680
b101011 H"
#681
b101100 H"
#682
b101101 H"
#683
b101110 H"
#684
b101111 H"
#685
b110000 H"
#686
b110001 H"
#687
b110010 H"
#688
b0 H"
1x"
#689
b111 R
b1 H"
0x"
#690
b10 H"
#691
b11 H"
#692
b100 H"
#693
b101 H"
#694
b110 H"
#695
b111 H"
#696
b1000 H"
#697
b1001 H"
#698
b1010 H"
#699
b1011 H"
#700
b1100 H"
#701
b1101 H"
#702
b1110 H"
#703
b1111 H"
#704
b10000 H"
#705
b10001 H"
#706
b10010 H"
#707
b10011 H"
#708
b10100 H"
#709
b10101 H"
#710
b10110 H"
#711
b10111 H"
#712
b11000 H"
#713
b11001 H"
#714
b11010 H"
#715
b11011 H"
#716
b11100 H"
#717
b11101 H"
#718
b11110 H"
#719
b11111 H"
#720
b100000 H"
#721
b100001 H"
#722
b100010 H"
#723
b100011 H"
#724
b100100 H"
#725
b100101 H"
#726
b100110 H"
#727
b100111 H"
#728
b101000 H"
#729
b101001 H"
#730
b101010 H"
#731
b101011 H"
#732
b101100 H"
#733
b101101 H"
#734
b101110 H"
#735
b101111 H"
#736
b110000 H"
#737
b110001 H"
#738
b110010 H"
#739
b0 H"
1x"
#740
b110 R
b1 H"
0x"
#741
b10 H"
#742
b11 H"
#743
b100 H"
#744
b101 H"
#745
b110 H"
#746
b111 H"
#747
b1000 H"
#748
b1001 H"
#749
b1010 H"
#750
b1011 H"
#751
b1100 H"
#752
b1101 H"
#753
b1110 H"
#754
b1111 H"
#755
b10000 H"
#756
b10001 H"
#757
b10010 H"
#758
b10011 H"
#759
b10100 H"
#760
b10101 H"
#761
b10110 H"
#762
b10111 H"
#763
b11000 H"
#764
b11001 H"
#765
b11010 H"
#766
b11011 H"
#767
b11100 H"
#768
b11101 H"
#769
b11110 H"
#770
b11111 H"
#771
b100000 H"
#772
b100001 H"
#773
b100010 H"
#774
b100011 H"
#775
b100100 H"
#776
b100101 H"
#777
b100110 H"
#778
b100111 H"
#779
b101000 H"
#780
b101001 H"
#781
b101010 H"
#782
b101011 H"
#783
b101100 H"
#784
b101101 H"
#785
b101110 H"
#786
b101111 H"
#787
b110000 H"
#788
b110001 H"
#789
b110010 H"
#790
b0 H"
1x"
#791
b101 R
b1 H"
0x"
#792
b10 H"
#793
b11 H"
#794
b100 H"
#795
b101 H"
#796
b110 H"
#797
b111 H"
#798
b1000 H"
#799
b1001 H"
#800
b1010 H"
#801
b1011 H"
#802
b1100 H"
#803
b1101 H"
#804
b1110 H"
#805
b1111 H"
#806
b10000 H"
#807
b10001 H"
#808
b10010 H"
#809
b10011 H"
#810
b10100 H"
#811
b10101 H"
#812
b10110 H"
#813
b10111 H"
#814
b11000 H"
#815
b11001 H"
#816
b11010 H"
#817
b11011 H"
#818
b11100 H"
#819
b11101 H"
#820
b11110 H"
#821
b11111 H"
#822
b100000 H"
#823
b100001 H"
#824
b100010 H"
#825
b100011 H"
#826
b100100 H"
#827
b100101 H"
#828
b100110 H"
#829
b100111 H"
#830
b101000 H"
#831
b101001 H"
#832
b101010 H"
#833
b101011 H"
#834
b101100 H"
#835
b101101 H"
#836
b101110 H"
#837
b101111 H"
#838
b110000 H"
#839
b110001 H"
#840
b110010 H"
#841
b0 H"
1x"
#842
b100 R
b1 H"
0x"
#843
b10 H"
#844
b11 H"
#845
b100 H"
#846
b101 H"
#847
b110 H"
#848
b111 H"
#849
b1000 H"
#850
b1001 H"
#851
b1010 H"
#852
b1011 H"
#853
b1100 H"
#854
b1101 H"
#855
b1110 H"
#856
b1111 H"
#857
b10000 H"
#858
b10001 H"
#859
b10010 H"
#860
b10011 H"
#861
b10100 H"
#862
b10101 H"
#863
b10110 H"
#864
b10111 H"
#865
b11000 H"
#866
b11001 H"
#867
b11010 H"
#868
b11011 H"
#869
b11100 H"
#870
b11101 H"
#871
b11110 H"
#872
b11111 H"
#873
b100000 H"
#874
b100001 H"
#875
b100010 H"
#876
b100011 H"
#877
b100100 H"
#878
b100101 H"
#879
b100110 H"
#880
b100111 H"
#881
b101000 H"
#882
b101001 H"
#883
b101010 H"
#884
b101011 H"
#885
b101100 H"
#886
b101101 H"
#887
b101110 H"
#888
b101111 H"
#889
b110000 H"
#890
b110001 H"
#891
b110010 H"
#892
b0 H"
1x"
#893
b11 R
b1 H"
0x"
#894
b10 H"
#895
b11 H"
#896
b100 H"
#897
b101 H"
#898
b110 H"
#899
b111 H"
#900
b1000 H"
#901
b1001 H"
#902
b1010 H"
#903
b1011 H"
#904
b1100 H"
#905
b1101 H"
#906
b1110 H"
#907
b1111 H"
#908
b10000 H"
#909
b10001 H"
#910
b10010 H"
#911
b10011 H"
#912
b10100 H"
#913
b10101 H"
#914
b10110 H"
#915
b10111 H"
#916
b11000 H"
#917
b11001 H"
#918
b11010 H"
#919
b11011 H"
#920
b11100 H"
#921
b11101 H"
#922
b11110 H"
#923
b11111 H"
#924
b100000 H"
#925
b100001 H"
#926
b100010 H"
#927
b100011 H"
#928
b100100 H"
#929
b100101 H"
#930
b100110 H"
#931
b100111 H"
#932
b101000 H"
#933
b101001 H"
#934
b101010 H"
#935
b101011 H"
#936
b101100 H"
#937
b101101 H"
#938
b101110 H"
#939
b101111 H"
#940
b110000 H"
#941
b110001 H"
#942
b110010 H"
#943
b0 H"
1x"
#944
b10 R
b1 H"
0x"
#945
b10 H"
#946
b11 H"
#947
b100 H"
#948
b101 H"
#949
b110 H"
#950
b111 H"
#951
b1000 H"
#952
b1001 H"
#953
b1010 H"
#954
b1011 H"
#955
b1100 H"
#956
b1101 H"
#957
b1110 H"
#958
b1111 H"
#959
b10000 H"
#960
b10001 H"
#961
b10010 H"
#962
b10011 H"
#963
b10100 H"
#964
b10101 H"
#965
b10110 H"
#966
b10111 H"
#967
b11000 H"
#968
b11001 H"
#969
b11010 H"
#970
b11011 H"
#971
b11100 H"
#972
b11101 H"
#973
b11110 H"
#974
b11111 H"
#975
b100000 H"
#976
b100001 H"
#977
b100010 H"
#978
b100011 H"
#979
b100100 H"
#980
b100101 H"
#981
b100110 H"
#982
b100111 H"
#983
b101000 H"
#984
b101001 H"
#985
b101010 H"
#986
b101011 H"
#987
b101100 H"
#988
b101101 H"
#989
b101110 H"
#990
b101111 H"
#991
b110000 H"
#992
b110001 H"
#993
b110010 H"
#994
b0 H"
1x"
#995
b1 R
b1 H"
0x"
#996
b10 H"
#997
b11 H"
#998
b100 H"
#999
b101 H"
#1000
b110 H"
#1001
b111 H"
#1002
b1000 H"
#1003
b1001 H"
#1004
b1010 H"
#1005
b1011 H"
#1006
b1100 H"
#1007
b1101 H"
#1008
b1110 H"
#1009
b1111 H"
#1010
b10000 H"
#1011
b10001 H"
#1012
b10010 H"
#1013
b10011 H"
#1014
b10100 H"
#1015
b10101 H"
#1016
b10110 H"
#1017
b10111 H"
#1018
b11000 H"
#1019
b11001 H"
#1020
b11010 H"
#1021
b11011 H"
#1022
b11100 H"
#1023
b11101 H"
#1024
b11110 H"
#1025
b11111 H"
#1026
b100000 H"
#1027
b100001 H"
#1028
b100010 H"
#1029
b100011 H"
#1030
b100100 H"
#1031
b100101 H"
#1032
b100110 H"
#1033
b100111 H"
#1034
b101000 H"
#1035
b101001 H"
#1036
b101010 H"
#1037
b101011 H"
#1038
b101100 H"
#1039
b101101 H"
#1040
b101110 H"
#1041
b101111 H"
#1042
b110000 H"
#1043
b110001 H"
#1044
b110010 H"
#1045
b0 H"
1x"
#1046
b0 R
b1 H"
0x"
#1047
b10 H"
#1048
b11 H"
#1049
b100 H"
#1050
b101 H"
#1051
b110 H"
#1052
b111 H"
#1053
b1000 H"
#1054
b1001 H"
#1055
b1010 H"
#1056
b1011 H"
#1057
b1100 H"
#1058
b1101 H"
#1059
b1110 H"
#1060
b1111 H"
#1061
b10000 H"
#1062
b10001 H"
#1063
b10010 H"
#1064
b10011 H"
#1065
b10100 H"
#1066
b10101 H"
#1067
b10110 H"
#1068
b10111 H"
#1069
b11000 H"
#1070
b11001 H"
#1071
b11010 H"
#1072
b11011 H"
#1073
b11100 H"
#1074
b11101 H"
#1075
b11110 H"
#1076
b11111 H"
#1077
b100000 H"
#1078
b100001 H"
#1079
b100010 H"
#1080
b100011 H"
#1081
b100100 H"
#1082
b100101 H"
#1083
b100110 H"
#1084
b100111 H"
#1085
b101000 H"
#1086
b101001 H"
#1087
b101010 H"
#1088
b101011 H"
#1089
b101100 H"
#1090
b101101 H"
#1091
b101110 H"
#1092
b101111 H"
#1093
b110000 H"
#1094
b110001 H"
#1095
b110010 H"
#1096
b0 H"
1x"
#1097
b1001000 J
b1 R
b1 j
b1 H"
0x"
#1098
b10 H"
#1099
b11 H"
#1100
b100 H"
#1101
b101 H"
#1102
b110 H"
#1103
b111 H"
#1104
b1000 H"
#1105
b1001 H"
#1106
b1010 H"
#1107
b1011 H"
#1108
b1100 H"
#1109
b1101 H"
#1110
b1110 H"
#1111
b1111 H"
#1112
b10000 H"
#1113
b10001 H"
#1114
b10010 H"
#1115
b10011 H"
#1116
b10100 H"
#1117
b10101 H"
#1118
b10110 H"
#1119
b10111 H"
#1120
b11000 H"
#1121
b11001 H"
#1122
b11010 H"
#1123
b11011 H"
#1124
b11100 H"
#1125
b11101 H"
#1126
b11110 H"
#1127
b11111 H"
#1128
b100000 H"
#1129
b100001 H"
#1130
b100010 H"
#1131
b100011 H"
#1132
b100100 H"
#1133
b100101 H"
#1134
b100110 H"
#1135
b100111 H"
#1136
b101000 H"
#1137
b101001 H"
#1138
b101010 H"
#1139
b101011 H"
#1140
b101100 H"
#1141
b101101 H"
#1142
b101110 H"
#1143
b101111 H"
#1144
b110000 H"
#1145
b110001 H"
#1146
b110010 H"
#1147
b0 H"
1x"
#1148
b0 R
b1 H"
0x"
#1149
b10 H"
#1150
b11 H"
#1151
b100 H"
#1152
b101 H"
#1153
b110 H"
#1154
b111 H"
#1155
b1000 H"
#1156
b1001 H"
#1157
b1010 H"
#1158
b1011 H"
#1159
b1100 H"
#1160
b1101 H"
#1161
b1110 H"
#1162
b1111 H"
#1163
b10000 H"
#1164
b10001 H"
#1165
b10010 H"
#1166
b10011 H"
#1167
b10100 H"
#1168
b10101 H"
#1169
b10110 H"
#1170
b10111 H"
#1171
b11000 H"
#1172
b11001 H"
#1173
b11010 H"
#1174
b11011 H"
#1175
b11100 H"
#1176
b11101 H"
#1177
b11110 H"
#1178
b11111 H"
#1179
b100000 H"
#1180
b100001 H"
#1181
b100010 H"
#1182
b100011 H"
#1183
b100100 H"
#1184
b100101 H"
#1185
b100110 H"
#1186
b100111 H"
#1187
b101000 H"
#1188
b101001 H"
#1189
b101010 H"
#1190
b101011 H"
#1191
b101100 H"
#1192
b101101 H"
#1193
b101110 H"
#1194
b101111 H"
#1195
b110000 H"
#1196
b110001 H"
#1197
b110010 H"
#1198
b0 H"
1x"
#1199
b10 j
b1 H"
0x"
#1200
b10 H"
#1201
b11 H"
#1202
b100 H"
#1203
b101 H"
#1204
b110 H"
#1205
b111 H"
#1206
b1000 H"
#1207
b1001 H"
#1208
b1010 H"
#1209
b1011 H"
#1210
b1100 H"
#1211
b1101 H"
#1212
b1110 H"
#1213
b1111 H"
#1214
b10000 H"
#1215
b10001 H"
#1216
b10010 H"
#1217
b10011 H"
#1218
b10100 H"
#1219
b10101 H"
#1220
b10110 H"
#1221
b10111 H"
#1222
b11000 H"
#1223
b11001 H"
#1224
b11010 H"
#1225
b11011 H"
#1226
b11100 H"
#1227
b11101 H"
#1228
b11110 H"
#1229
b11111 H"
#1230
b100000 H"
#1231
b100001 H"
#1232
b100010 H"
#1233
b100011 H"
#1234
b100100 H"
#1235
b100101 H"
#1236
b100110 H"
#1237
b100111 H"
#1238
b101000 H"
#1239
b101001 H"
#1240
b101010 H"
#1241
b101011 H"
#1242
b101100 H"
#1243
b101101 H"
#1244
b101110 H"
#1245
b101111 H"
#1246
b110000 H"
#1247
b110001 H"
#1248
b110010 H"
#1249
b0 H"
1x"
#1250
b111 2
b10 R
b100 j
b111 n
b1 H"
0x"
#1251
b10 H"
b110 h"
b110 p"
#1252
b11 H"
#1253
b100 H"
#1254
b101 H"
#1255
b110 H"
#1256
b111 H"
#1257
b1000 H"
#1258
b1001 H"
#1259
b1010 H"
#1260
b1011 H"
#1261
b1100 H"
#1262
b1101 H"
#1263
b1110 H"
#1264
b1111 H"
#1265
b10000 H"
#1266
b10001 H"
#1267
b10010 H"
#1268
b10011 H"
#1269
b10100 H"
#1270
b10101 H"
#1271
b10110 H"
#1272
b10111 H"
#1273
b11000 H"
#1274
b11001 H"
#1275
b11010 H"
#1276
b11011 H"
#1277
b11100 H"
#1278
b11101 H"
#1279
b11110 H"
#1280
b11111 H"
#1281
b100000 H"
#1282
b100001 H"
#1283
b100010 H"
#1284
b100011 H"
#1285
b100100 H"
#1286
b100101 H"
#1287
b100110 H"
#1288
b100111 H"
#1289
b101000 H"
#1290
b101001 H"
#1291
b101010 H"
#1292
b101011 H"
#1293
b101100 H"
#1294
b101101 H"
#1295
b101110 H"
#1296
b101111 H"
#1297
b110000 H"
#1298
b110001 H"
#1299
b110010 H"
#1300
b0 H"
1x"
#1301
b1 H"
0x"
#1302
b10 H"
#1303
b11 H"
#1304
b100 H"
#1305
b101 H"
#1306
b110 H"
#1307
b111 H"
#1308
b1000 H"
#1309
b1001 H"
#1310
b1010 H"
#1311
b1011 H"
#1312
b1100 H"
#1313
b1101 H"
#1314
b1110 H"
#1315
b1111 H"
#1316
b10000 H"
#1317
b10001 H"
#1318
b10010 H"
#1319
b10011 H"
#1320
b10100 H"
#1321
b10101 H"
#1322
b10110 H"
#1323
b10111 H"
#1324
b11000 H"
#1325
b11001 H"
#1326
b11010 H"
#1327
b11011 H"
#1328
b11100 H"
#1329
b11101 H"
#1330
b11110 H"
#1331
b11111 H"
#1332
b100000 H"
#1333
b100001 H"
#1334
b100010 H"
#1335
b100011 H"
#1336
b100100 H"
#1337
b100101 H"
#1338
b100110 H"
#1339
b100111 H"
#1340
b101000 H"
#1341
b101001 H"
#1342
b101010 H"
#1343
b101011 H"
#1344
b101100 H"
#1345
b101101 H"
#1346
b101110 H"
#1347
b101111 H"
#1348
b110000 H"
#1349
b110001 H"
#1350
b110010 H"
#1351
b0 H"
1x"
#1352
b1 H"
0x"
#1353
b10 H"
#1354
b11 H"
#1355
b100 H"
#1356
b101 H"
#1357
b110 H"
#1358
b111 H"
#1359
b1000 H"
#1360
b1001 H"
#1361
b1010 H"
#1362
b1011 H"
#1363
b1100 H"
#1364
b1101 H"
#1365
b1110 H"
#1366
b1111 H"
#1367
b10000 H"
#1368
b10001 H"
#1369
b10010 H"
#1370
b10011 H"
#1371
b10100 H"
#1372
b10101 H"
#1373
b10110 H"
#1374
b10111 H"
#1375
b11000 H"
#1376
b11001 H"
#1377
b11010 H"
#1378
b11011 H"
#1379
b11100 H"
#1380
b11101 H"
#1381
b11110 H"
#1382
b11111 H"
